{
  "profiles": {
    "Intercom.CustomerInvitations.Host.Console": {
      "commandName": "Project",
      "commandLineArgs": "-i c:\\Temp\\intercom.customerinvitations\\data\\intercomcustomers.json -o output.txt"
    }
  }
}